<svg xmlns="http://www.w3.org/2000/svg" xmlns:xlink="http://www.w3.org/1999/xlink" viewBox="1528 3531 1080 512">
  <defs>
    <style>
      .cls-1 {
        clip-path: url(#clip-deploy);
      }

      .cls-2 {
        clip-path: url(#clip-path);
      }

      .cls-3 {
        fill: url(#linear-gradient);
      }

      .cls-4 {
        clip-path: url(#clip-path-3);
      }

      .cls-5 {
        fill: url(#linear-gradient-2);
      }

      .cls-6 {
        fill: #cef7ee;
      }

      .cls-7 {
        fill: #a3e0d3;
      }

      .cls-8 {
        clip-path: url(#clip-path-9);
      }

      .cls-9 {
        fill: #89c4b6;
      }

      .cls-10 {
        fill: #73aba0;
      }

      .cls-11 {
        clip-path: url(#clip-path-12);
      }

      .cls-12 {
        fill: #f58973;
      }

      .cls-13 {
        fill: #b04343;
      }

      .cls-14 {
        fill: #167177;
      }

      .cls-15 {
        fill: #108c97;
      }

      .cls-16 {
        fill: none;
      }

      .cls-17 {
        fill: #f0f1f1;
      }

      .cls-18 {
        fill: #d2d3d3;
      }

      .cls-19 {
        opacity: 0.21;
      }

      .cls-20 {
        fill: #fff;
      }

      .cls-21 {
        fill: #182b3a;
      }
    </style>
    <clipPath id="clip-path">
      <rect id="Rectangle_182" data-name="Rectangle 182" width="928.205" height="579.2"/>
    </clipPath>
    <linearGradient id="linear-gradient" x1="0.448" y1="0.784" x2="0.613" y2="-0.33" gradientUnits="objectBoundingBox">
      <stop offset="0" stop-color="#102036"/>
      <stop offset="0.999" stop-color="#59aea5"/>
    </linearGradient>
    <clipPath id="clip-path-3">
      <path id="Path_1854" data-name="Path 1854" d="M283.288,128.148c39.356-5.2,83.724-7.24,114.262,18.193,26.639,22.091,35.922,59.962,62.468,82.239,29.146,24.5,70.729,24.133,108.6,28.217,41.676,4.455,86.509,18.564,108.878,54.022,14.758,23.391,18.1,53.557,37.221,73.514,31,32.209,84.838,21.256,126.143,38.242,44.368,18.193,69.615,73.235,54.578,118.717-8.725,26.454-28.589,47.8-49.845,65.81a361.764,361.764,0,0,1-146.749,74.442c-67.759,16.522-138.581,12.995-208.382,11.881-84.652-1.3-170.047,1.021-253.214-14.758-42.6-8.075-85.116-21.256-120.017-46.967-46.6-34.344-75.092-87.623-98.854-140.345C8.91,470.1-.279,448.008,0,424.9c.464-41.769,30.724-76.206,50.494-112.962A243.588,243.588,0,0,0,77.876,224.96c2.042-17.45-3.156-43.254,12.624-55.228,21.163-16.058,64.882-18.75,90.5-24.133Q231.819,134.878,283.288,128.148Z" transform="translate(0.007 -124.893)"/>
    </clipPath>
    <linearGradient id="linear-gradient-2" x1="0.46" y1="0.769" x2="0.622" y2="-0.322" xlink:href="#linear-gradient"/>
    <clipPath id="clip-path-9">
      <rect id="Rectangle_213" data-name="Rectangle 213" width="960.005" height="579.2"/>
    </clipPath>
    <clipPath id="clip-path-12">
      <rect id="Rectangle_214" data-name="Rectangle 214" width="928.005" height="579.2"/>
    </clipPath>
    <clipPath id="clip-deploy">
      <rect x="1528" y="3531" width="1080" height="512"/>
    </clipPath>
  </defs>
  <g id="deploy" class="cls-1">
    <rect class="cls-20" x="1528" y="3531" width="1080" height="512"/>
    <g id="Group_384" data-name="Group 384" transform="translate(1340.5 3457.2)">
      <g id="Group_351" data-name="Group 351" class="cls-2" transform="translate(187.5 6.6)">
        <path id="Path_1853" data-name="Path 1853" class="cls-3" d="M884.38,431.078c-41.305-16.986-95.141-6.033-126.143-38.242-19.121-19.864-22.463-50.123-37.221-73.514-22.37-35.457-67.2-49.473-108.878-54.022-37.778-4.084-79.454-3.806-108.6-28.217-26.454-22.277-35.829-60.148-62.468-82.239-30.538-25.433-74.906-23.3-114.262-18.193-34.251,4.548-68.409,10.3-102.2,17.543-11.7,2.506-27.1,4.363-42.512,7.24V624.98H877.326c3.991-3.063,7.89-6.219,11.788-9.468,21.349-17.914,41.12-39.356,49.845-65.81C954,504.406,928.655,449.364,884.38,431.078Z" transform="translate(24.888 -4.706)"/>
      </g>
      <g id="Group_353" data-name="Group 353" class="cls-2" transform="translate(187.5 6.6)">
        <g id="Group_352" data-name="Group 352" class="cls-4" transform="translate(-174.045 109.8)">
          <rect id="Rectangle_183" data-name="Rectangle 183" class="cls-5" width="1018.705" height="607.417" transform="translate(138.587 -115.926)"/>
        </g>
      </g>
      <g id="Group_354" data-name="Group 354" class="cls-2" transform="translate(187.5 6.6)">
        <circle id="Ellipse_208" data-name="Ellipse 208" class="cls-6" cx="19.307" cy="19.307" r="19.307" transform="translate(-32.023 63.768)"/>
      </g>
      <g id="Group_355" data-name="Group 355" class="cls-2" transform="translate(187.5 6.6)">
        <circle id="Ellipse_209" data-name="Ellipse 209" class="cls-6" cx="26.732" cy="26.732" r="26.732" transform="translate(754.074 506.15)"/>
      </g>
      <g id="Group_356" data-name="Group 356" class="cls-2" transform="translate(187.5 6.6)">
        <path id="Path_1855" data-name="Path 1855" class="cls-6" d="M942.792,604.656a90.447,90.447,0,0,0-80.568-99.318,88.632,88.632,0,0,0-18.564,0A43.356,43.356,0,0,0,766.9,488.909a66.057,66.057,0,0,0-45.389,17.357,25.5,25.5,0,0,0-15.872-8.075,24.968,24.968,0,0,0-27.2,20.235,35.307,35.307,0,0,0-21.163-10.117,34.823,34.823,0,0,0-23.3,5.848,43.332,43.332,0,0,0-75.463,3.9,56.128,56.128,0,0,0-68.687-3.342,25.033,25.033,0,0,0-46.874.279,43.2,43.2,0,0,0-28.217-14.758,43.645,43.645,0,0,0-21.163,3.063,43.209,43.209,0,0,0-35.457-26.175,43.715,43.715,0,0,0-15.965,1.3,90.136,90.136,0,0,0-47.338-41.584,27.8,27.8,0,0,0,3.156-10.3A28.316,28.316,0,0,0,282,398.038a43.419,43.419,0,0,0-1.949-68.13A25.056,25.056,0,0,0,292.4,284.24a25.035,25.035,0,0,0-21.906-43.533,43.134,43.134,0,0,0,4.919-16.151,44.082,44.082,0,0,0-29.238-46.132,41.834,41.834,0,0,0,.835-4.919,35.088,35.088,0,0,0-69.8-7.24,36.181,36.181,0,0,0,.743,11.881L71.3,208.313l46.5,433.843,742.935,69.43-3.063-25.99A90.389,90.389,0,0,0,942.792,604.656Z" transform="translate(-179.157 -15.803)"/>
      </g>
      <g id="Group_357" data-name="Group 357" class="cls-2" transform="translate(187.5 6.6)">
        <rect id="Rectangle_188" data-name="Rectangle 188" class="cls-7" width="24.783" height="441.083" transform="matrix(0.74, 0.673, -0.673, 0.74, 238.241, 355.141)"/>
        <rect id="Rectangle_189" data-name="Rectangle 189" class="cls-7" width="11.046" height="441.083" transform="matrix(0.74, 0.673, -0.673, 0.74, 263.313, 377.919)"/>
        <rect id="Rectangle_190" data-name="Rectangle 190" class="cls-7" width="11.046" height="441.083" transform="matrix(0.74, 0.673, -0.673, 0.74, 223.267, 341.546)"/>
      </g>
      <g id="Group_358" data-name="Group 358" class="cls-2" transform="translate(187.5 6.6)">
        <path id="Path_1856" data-name="Path 1856" class="cls-7" d="M996.644,580a38.8,38.8,0,0,0-60.983-33.323,75.781,75.781,0,0,0-110.271,9.282,75.333,75.333,0,0,0-43.254-15.5,76.367,76.367,0,0,0-7.983.093,22.332,22.332,0,0,0-40.47-9.839,38.968,38.968,0,0,0-51.422-4.27,39.3,39.3,0,0,0-24.041-9.468,38.827,38.827,0,0,0-40.006,34.622,22.222,22.222,0,0,0-2.6-1.207,38.553,38.553,0,0,0-28.032-.743,26.955,26.955,0,0,0-45.111-16.986,38.31,38.31,0,0,0-23.112-8.725,38.949,38.949,0,0,0-37.035,23.3A43.739,43.739,0,0,0,449,544.448a63.589,63.589,0,0,0-86.509-38.8,21.056,21.056,0,0,0-23.855-19.4A28.834,28.834,0,0,0,313.856,470.1a28.278,28.278,0,0,0-6.869.65,38.649,38.649,0,0,0-21.442-30.631,38.745,38.745,0,0,0-3.713-34.158,15.285,15.285,0,0,0,4.919-10.86,15.45,15.45,0,0,0-11.046-15.408,26.257,26.257,0,0,0,7.333-17.543,27.048,27.048,0,0,0-12.531-23.762,38.924,38.924,0,0,0-10.86-59.684,22.281,22.281,0,0,0-15.872-37.128h-1.485a40.563,40.563,0,0,0,1.856-11.138,43.818,43.818,0,0,0-26.639-41.862,80.747,80.747,0,0,0,1.764-13.552,75.837,75.837,0,1,0-78.526,73.05,71.9,71.9,0,0,0,11.881-.464L130.814,521.15l188.8,185.919L947.82,693.889l14.48-76.577A39.11,39.11,0,0,0,996.644,580Z" transform="translate(-178.895 -13.051)"/>
      </g>
      <g id="Group_385" data-name="Group 385" class="cls-8" transform="translate(307.6 40.6)">
        <path id="Path_1883" data-name="Path 1883" class="cls-7" d="M67.672,580c-.768-21.441,16.512-39.449,38.688-40.284a41.346,41.346,0,0,1,24.384,6.962,80.206,80.206,0,0,1,114.048,9.282,79.582,79.582,0,0,1,44.736-15.5,81.685,81.685,0,0,1,8.256.093,22.861,22.861,0,0,1,22.08-19.4,23.238,23.238,0,0,1,19.776,9.561,41.327,41.327,0,0,1,53.184-4.27,41.424,41.424,0,0,1,24.864-9.468c21.216-.743,39.168,14.573,41.376,34.622a23.358,23.358,0,0,1,2.688-1.207,41.145,41.145,0,0,1,28.992-.743c1.344-13.18,12.576-23.669,26.688-24.133A28.407,28.407,0,0,1,537.4,532.66a40.9,40.9,0,0,1,62.208,14.573,46.65,46.65,0,0,1,34.464-2.785c8.16-24.876,31.776-43.254,60.288-44.275a67.769,67.769,0,0,1,29.184,5.476c.864-10.582,9.888-19.121,21.12-19.585a22.778,22.778,0,0,1,3.552.186A29.884,29.884,0,0,1,773.852,470.1a30.214,30.214,0,0,1,7.1.65,38.717,38.717,0,0,1,22.176-30.631,37.641,37.641,0,0,1,3.84-34.158,15.072,15.072,0,0,1-5.088-10.86,15.507,15.507,0,0,1,11.424-15.408,25.829,25.829,0,0,1-7.584-17.543,26.82,26.82,0,0,1,12.96-23.762,38.589,38.589,0,0,1-9.792-24.04c-.576-15.223,8.064-28.774,21.024-35.643a21.72,21.72,0,0,1-5.856-14.016c-.48-12.345,9.5-22.648,22.272-23.112h1.536a39.34,39.34,0,0,1-1.92-11.138c-.672-18.657,10.752-34.9,27.552-41.862a78.217,78.217,0,0,1-1.824-13.552C870.14,133.16,903.932,98.074,947.229,96.5c43.3-1.485,79.584,31.188,81.216,73.05,1.536,41.862-32.256,76.948-75.552,78.526a76.886,76.886,0,0,1-12.288-.464l22.56,273.542L767.9,707.069,118.168,693.889l-14.976-76.577C83.7,614.9,68.344,599.4,67.672,580Z" transform="translate(46.568 -13.051)"/>
      </g>
      <g id="Group_359" data-name="Group 359" class="cls-2" transform="translate(187.5 6.6)">
        <path id="Path_1857" data-name="Path 1857" class="cls-9" d="M818.02,650.146a78.028,78.028,0,0,0-67.666-87.158,84.618,84.618,0,0,0-16.058-.371,37.366,37.366,0,0,0-65.9-15.5,56.587,56.587,0,0,0-39.449,14.2,21.909,21.909,0,0,0-13.552-7.24,21.641,21.641,0,0,0-23.855,16.893,30.125,30.125,0,0,0-38.242-4.455,37.382,37.382,0,0,0-65.16,1.949,48.253,48.253,0,0,0-59.127-4.177,21.6,21.6,0,0,0-40.47-.65,37.084,37.084,0,0,0-24.133-13.18,36.6,36.6,0,0,0-18.286,2.32,37.123,37.123,0,0,0-30.074-23.205,37.665,37.665,0,0,0-13.737.835A78.174,78.174,0,0,0,262.3,493.65a24.066,24.066,0,0,0,2.877-8.818,24.446,24.446,0,0,0-13.273-24.876,37.386,37.386,0,0,0-.464-58.755,21.6,21.6,0,0,0,11.417-39.17,21.859,21.859,0,0,0,7.89-14.109A21.56,21.56,0,0,0,252,323.789a20.916,20.916,0,0,0-7.24.371,38.569,38.569,0,0,0,4.548-13.83A37.908,37.908,0,0,0,224.9,270.046a33.258,33.258,0,0,0,.835-4.177,30.262,30.262,0,0,0-60.055-7.518,28.808,28.808,0,0,0,.464,10.21L73.6,292.694l32.209,374.995,639.347,73.328-2.135-22.463A78.5,78.5,0,0,0,818.02,650.146Z" transform="translate(-179.323 -22.772)"/>
      </g>
      <g id="Group_360" data-name="Group 360" class="cls-2" transform="translate(339.5 6.6)">
        <path id="Path_1858" data-name="Path 1858" class="cls-10" d="M52.765,649.183A32.421,32.421,0,0,1,80.518,612.7a31.773,31.773,0,0,1,20.142,3.806,63.2,63.2,0,0,1,92.356-1.3,63.337,63.337,0,0,1,34.622-16.429c2.228-.278,4.455-.464,6.59-.557A18.749,18.749,0,0,1,250.38,580.31a18.553,18.553,0,0,1,16.615,6.312,32.42,32.42,0,0,1,21.163-12.159,32.061,32.061,0,0,1,21.07,4.363,32.466,32.466,0,0,1,55.321,15.594,14.767,14.767,0,0,1,2.042-1.207,32.653,32.653,0,0,1,23.3-2.97A22.442,22.442,0,0,1,425.9,572.42a32.324,32.324,0,0,1,51.144,7.147,36.624,36.624,0,0,1,14.944-5.476,37.1,37.1,0,0,1,12.438.464A53.078,53.078,0,0,1,573.116,535.2a17.692,17.692,0,0,1,15.408-17.914,14.684,14.684,0,0,1,2.877-.093,24.111,24.111,0,0,1,25.062-15.5,32.37,32.37,0,0,1,15.315-27.2,32.421,32.421,0,0,1,.278-28.682,12.932,12.932,0,0,1,2.877-22.277,22.034,22.034,0,0,1-7.518-13.923,22.692,22.692,0,0,1,8.447-20.792,32.07,32.07,0,0,1-9.839-19.214,32.521,32.521,0,0,1,14.016-31.281,18.89,18.89,0,0,1-5.848-11.231,18.628,18.628,0,0,1,15.965-20.977,5.292,5.292,0,0,1,1.207-.093,37.712,37.712,0,0,1-2.506-9.1,36.436,36.436,0,0,1,18.657-36.943,69.678,69.678,0,0,1-2.6-11.138,63.273,63.273,0,1,1,71.193,54.207,59.973,59.973,0,0,1-9.932.557l40.748,225.554L625.374,699.12,102.424,739.682,84.138,677.307A32.436,32.436,0,0,1,52.765,649.183Z" transform="translate(262.639 -18.839)"/>
      </g>
      <g id="Group_386" data-name="Group 386" class="cls-11" transform="translate(187.6 11.6)">
        <path id="Path_1884" data-name="Path 1884" class="cls-10" d="M790.447,649.183A32.42,32.42,0,0,0,762.7,612.7a31.761,31.761,0,0,0-20.138,3.806,63.179,63.179,0,0,0-92.337-1.3,63.317,63.317,0,0,0-34.615-16.429c-2.227-.278-4.454-.464-6.589-.557a18.748,18.748,0,0,0-16.147-17.914,18.547,18.547,0,0,0-16.611,6.312A32.412,32.412,0,0,0,555.1,574.462a32.048,32.048,0,0,0-21.066,4.363,32.456,32.456,0,0,0-55.309,15.594,14.762,14.762,0,0,0-2.042-1.207,32.64,32.64,0,0,0-23.293-2.97,22.436,22.436,0,0,0-36.007-17.822,32.313,32.313,0,0,0-51.133,7.147,36.611,36.611,0,0,0-14.941-5.476,37.079,37.079,0,0,0-12.435.464A53.064,53.064,0,0,0,270.207,535.2a17.691,17.691,0,0,0-15.4-17.914,14.678,14.678,0,0,0-2.877-.093,24.1,24.1,0,0,0-25.056-15.5,32.371,32.371,0,0,0-15.312-27.2,32.428,32.428,0,0,0-.278-28.682,12.933,12.933,0,0,0-2.877-22.277,22.035,22.035,0,0,0,7.517-13.923,22.694,22.694,0,0,0-8.445-20.792,32.072,32.072,0,0,0,9.837-19.214A32.524,32.524,0,0,0,203.3,338.327a18.891,18.891,0,0,0,5.846-11.231,18.627,18.627,0,0,0-15.962-20.977,5.29,5.29,0,0,0-1.206-.093,37.717,37.717,0,0,0,2.506-9.1,36.438,36.438,0,0,0-18.653-36.943,69.691,69.691,0,0,0,2.6-11.138,63.259,63.259,0,1,0-71.178,54.207,59.947,59.947,0,0,0,9.93.557L76.44,529.166,217.961,699.12,740.8,739.682l18.282-62.375A32.432,32.432,0,0,0,790.447,649.183Z" transform="translate(-177.778 -18.839)"/>
      </g>
      <g id="Group_366" data-name="Group 366" class="cls-2" transform="translate(187.5 6.6)">
        <g id="Group_361" data-name="Group 361" transform="translate(195.488 307.978)">
          <path id="Path_1859" data-name="Path 1859" class="cls-12" d="M429.474,408.144a148.543,148.543,0,0,0-8.725-16.615c-3.342-5.569-7.24-11.51-7.89-17.729l-13.645,11.231a1.63,1.63,0,0,0-.464.371c-3.62,3.991,8.447,20.792,27.011,37.685,1.671,1.578,3.434,3.063,5.105,4.455a17.35,17.35,0,0,0,1.764-6.5C433,416.59,431.33,412.228,429.474,408.144Z" transform="translate(-398.109 -340.942)"/>
          <path id="Path_1860" data-name="Path 1860" class="cls-13" d="M467,443.751a2.028,2.028,0,0,0,.278-.464l38.8-57.27L453.727,338.4,414,371.166c.65,6.219,4.548,12.16,7.89,17.729a166.713,166.713,0,0,1,8.725,16.615c1.856,4.084,3.527,8.447,3.156,12.9a19.283,19.283,0,0,1-1.764,6.5C448.622,439.11,463.659,447.371,467,443.751Z" transform="translate(-399.25 -338.4)"/>
        </g>
        <g id="Group_362" data-name="Group 362" transform="translate(132.269 183.198)">
          <path id="Path_1861" data-name="Path 1861" class="cls-14" d="M497.819,218.8c-23.576,28.96-48.359,56.992-78.619,78.619-12.159,8.632-25.154,16.244-39.449,20.513a80.6,80.6,0,0,1-30.816,3.249L330,343.365h0c15.872,14.387,38.335,16.986,54.486,6.033l147.12-99.875Z" transform="translate(-330 -205.033)"/>
          <path id="Path_1862" data-name="Path 1862" class="cls-15" d="M381.224,316.867c14.294-4.27,27.289-11.881,39.449-20.513,30.259-21.627,55.135-49.659,78.619-78.619l-2.506-2.228c-17.729-16.058-43.9-15.223-58.384,1.671L350.5,320.023A78.487,78.487,0,0,0,381.224,316.867Z" transform="translate(-331.472 -203.968)"/>
        </g>
        <g id="Group_363" data-name="Group 363" transform="translate(283.952 264.631)">
          <path id="Path_1863" data-name="Path 1863" class="cls-15" d="M588.866,392.5q22.834-21.581,45.668-43.069a44,44,0,0,0-13.83-24.783L584.41,291.7,501.8,442.255c12.995-.557,26.083-4.734,37.685-10.86C558.142,421.463,573.643,406.89,588.866,392.5Z" transform="translate(-494.017 -291.7)"/>
          <path id="Path_1864" data-name="Path 1864" class="cls-14" d="M633.931,353.8q-22.834,21.581-45.668,43.069c-15.315,14.387-30.816,29.053-49.381,38.8-11.6,6.126-24.6,10.21-37.685,10.86l-2.97,5.384c-9.375,17.079-4.734,39.263,11.138,53.65L623.907,387.4A38.142,38.142,0,0,0,633.931,353.8Z" transform="translate(-493.415 -296.158)"/>
        </g>
        <path id="Path_1865" data-name="Path 1865" class="cls-16" d="M501.4,415.6a53.988,53.988,0,0,0,7.983,2.97A53.988,53.988,0,0,1,501.4,415.6Z" transform="translate(-210.036 -35.964)"/>
        <path id="Path_1866" data-name="Path 1866" class="cls-16" d="M484.7,406c2.228,1.485,4.363,2.877,6.5,4.084C489.063,408.877,486.928,407.485,484.7,406Z" transform="translate(-208.838 -35.275)"/>
        <path id="Path_1867" data-name="Path 1867" class="cls-16" d="M491.7,410.4c2.135,1.207,4.177,2.413,6.126,3.342A57.672,57.672,0,0,1,491.7,410.4Z" transform="translate(-209.34 -35.591)"/>
        <path id="Path_1868" data-name="Path 1868" class="cls-12" d="M446.821,372.544C435.4,360.013,427.7,347.854,425.937,339.5L417.3,351.01c-3.249,4.177.093,13.459,7.89,24.412a41.611,41.611,0,0,1,10.674-2.506A107.058,107.058,0,0,1,446.821,372.544Z" transform="translate(-203.91 -30.501)"/>
        <path id="Path_1869" data-name="Path 1869" class="cls-13" d="M495.979,412.7c-.928-.464-1.949-.928-2.877-1.392q-2.924-1.532-6.126-3.342c-2.135-1.207-4.27-2.6-6.5-4.084a186.62,186.62,0,0,1-20.421-16.151q-6.822-6.265-12.531-12.531a107.878,107.878,0,0,0-10.953.278,46.991,46.991,0,0,0-10.674,2.506,156.354,156.354,0,0,0,21.442,23.669c21.627,19.678,44.183,30.724,50.587,24.69l10.582-9.653a30.477,30.477,0,0,1-4.548-.928A68.757,68.757,0,0,1,495.979,412.7Z" transform="translate(-204.616 -33.063)"/>
        <path id="Path_1870" data-name="Path 1870" class="cls-17" d="M462.436,358.061c10.025-2.228,18.378-8.911,26.268-15.5A1120.559,1120.559,0,0,0,628.77,203.423c-2.97-2.321-5.94-4.827-8.818-7.518C604.08,181.424,592.2,165.459,585.7,152c-35.457,22.277-65.346,49.566-87.715,79.269L426.7,326.038c1.764,8.354,9.375,20.421,20.885,33.044C452.6,359.175,457.609,359.175,462.436,358.061Z" transform="translate(-204.673 -17.039)"/>
        <path id="Path_1871" data-name="Path 1871" class="cls-18" d="M668.535,229.863c-11.417-4.27-24.969-11.881-38.149-22.463A1120.551,1120.551,0,0,1,490.32,346.538c-7.89,6.59-16.244,13.181-26.268,15.5A61.267,61.267,0,0,1,449.2,363.06q5.708,6.265,12.531,12.531a186.613,186.613,0,0,0,20.421,16.151c2.228,1.485,4.363,2.877,6.5,4.084s4.177,2.413,6.126,3.342c1.021.464,1.949.928,2.877,1.392a53.985,53.985,0,0,0,7.983,2.97,33.023,33.023,0,0,0,4.548.928l87.623-79.918C625.373,299.571,649.6,267.269,668.535,229.863Z" transform="translate(-206.289 -21.016)"/>
        <path id="Path_1872" data-name="Path 1872" class="cls-12" d="M641.069,199.732A1103.485,1103.485,0,0,0,716.532,99.3,382.825,382.825,0,0,0,598,148.309c6.5,13.459,18.378,29.517,34.251,43.9C635.128,194.812,638.1,197.318,641.069,199.732Z" transform="translate(-216.972 -13.255)"/>
        <path id="Path_1873" data-name="Path 1873" class="cls-13" d="M682.549,222.094A383.046,383.046,0,0,0,720.141,99.2h0a.341.341,0,0,0-.278.093A1120.882,1120.882,0,0,1,644.4,199.725C657.58,210.213,671.039,217.917,682.549,222.094Z" transform="translate(-220.303 -13.248)"/>
        <path id="Path_1874" data-name="Path 1874" class="cls-19" d="M619.238,267.583a47.678,47.678,0,1,0-12.159,36.943A47.738,47.738,0,0,0,619.238,267.583Z" transform="translate(-211.663 -22.259)"/>
        <g id="Group_364" data-name="Group 364" transform="translate(314.251 189.824)">
          <path id="Path_1875" data-name="Path 1875" class="cls-12" d="M579.129,278.581c16.429-2.506,31.095-12.159,42.048-24.6a47.717,47.717,0,0,0-94.677-2.042,63.847,63.847,0,0,0,6.219,9.932C543.486,275.425,562.143,281.273,579.129,278.581Z" transform="translate(-526.09 -211.106)"/>
          <path id="Path_1876" data-name="Path 1876" class="cls-13" d="M621.145,257.149c-10.953,12.438-25.711,22.091-42.048,24.6-16.986,2.6-35.643-3.156-46.317-16.615a61.363,61.363,0,0,1-6.219-9.932,47.734,47.734,0,0,0,82.517,38.985A48.324,48.324,0,0,0,621.145,257.149Z" transform="translate(-526.058 -214.272)"/>
        </g>
        <g id="Group_365" data-name="Group 365" transform="translate(324.764 200.369)">
          <path id="Path_1877" data-name="Path 1877" class="cls-20" d="M605.817,240.586l-62.19-.186a36.1,36.1,0,0,0-3.527,6.776l69.151.186A29.113,29.113,0,0,0,605.817,240.586Z" transform="translate(-537.579 -223.754)"/>
          <path id="Path_1878" data-name="Path 1878" class="cls-21" d="M609.165,247.886l-69.151-.186a36.348,36.348,0,0,0-2.413,9.839l73.978.186A40.149,40.149,0,0,0,609.165,247.886Z" transform="translate(-537.399 -224.279)"/>
          <path id="Path_1879" data-name="Path 1879" class="cls-21" d="M600.064,232.151a37.157,37.157,0,0,0-52.536,2.506A39.048,39.048,0,0,0,544,239.112l62.19.186A49.011,49.011,0,0,0,600.064,232.151Z" transform="translate(-537.859 -222.467)"/>
          <path id="Path_1880" data-name="Path 1880" class="cls-20" d="M596.569,295.793,554.8,295.7A37.254,37.254,0,0,0,596.569,295.793Z" transform="translate(-538.634 -227.725)"/>
          <path id="Path_1881" data-name="Path 1881" class="cls-21" d="M602.226,288.7a37.2,37.2,0,0,0,6.59-10.117L540.5,278.4a37.157,37.157,0,0,0,9.189,12.809,44.748,44.748,0,0,0,4.084,3.249l41.769.093A32.863,32.863,0,0,0,602.226,288.7Z" transform="translate(-537.608 -226.483)"/>
          <path id="Path_1882" data-name="Path 1882" class="cls-20" d="M611.562,258.486l-73.978-.186a37.782,37.782,0,0,0,2.785,18.657l68.316.186A39.1,39.1,0,0,0,611.562,258.486Z" transform="translate(-537.384 -225.04)"/>
        </g>
      </g>
      <g id="Group_367" data-name="Group 367" class="cls-2" transform="translate(187.5 6.6)">
        <circle id="Ellipse_210" data-name="Ellipse 210" class="cls-6" cx="15.872" cy="15.872" r="15.872" transform="translate(720.473 431.058)"/>
      </g>
      <g id="Group_368" data-name="Group 368" class="cls-2" transform="translate(187.5 6.6)">
        <circle id="Ellipse_211" data-name="Ellipse 211" class="cls-6" cx="5.198" cy="5.198" r="5.198" transform="translate(558.687 431.987)"/>
      </g>
      <g id="Group_369" data-name="Group 369" class="cls-2" transform="translate(187.5 6.6)">
        <circle id="Ellipse_212" data-name="Ellipse 212" class="cls-6" cx="8.261" cy="8.261" r="8.261" transform="translate(115.933 183.785)"/>
      </g>
      <g id="Group_370" data-name="Group 370" class="cls-2" transform="translate(187.5 6.6)">
        <circle id="Ellipse_213" data-name="Ellipse 213" class="cls-6" cx="13.088" cy="13.088" r="13.088" transform="translate(32.394 69.151)"/>
      </g>
      <g id="Group_371" data-name="Group 371" class="cls-2" transform="translate(187.5 6.6)">
        <circle id="Ellipse_214" data-name="Ellipse 214" class="cls-7" cx="19.307" cy="19.307" r="19.307" transform="translate(439.691 442.011)"/>
      </g>
      <g id="Group_372" data-name="Group 372" class="cls-2" transform="translate(187.5 6.6)">
        <circle id="Ellipse_215" data-name="Ellipse 215" class="cls-7" cx="17.265" cy="17.265" r="17.265" transform="translate(804.382 555.438)"/>
      </g>
      <g id="Group_373" data-name="Group 373" class="cls-2" transform="translate(187.5 6.6)">
        <circle id="Ellipse_216" data-name="Ellipse 216" class="cls-7" cx="9.004" cy="9.004" r="9.004" transform="translate(153.711 394.58)"/>
      </g>
      <g id="Group_374" data-name="Group 374" class="cls-2" transform="translate(187.5 6.6)">
        <circle id="Ellipse_217" data-name="Ellipse 217" class="cls-7" cx="5.105" cy="5.105" r="5.105" transform="translate(288.486 446.838)"/>
      </g>
      <g id="Group_375" data-name="Group 375" class="cls-2" transform="translate(187.5 6.6)">
        <circle id="Ellipse_218" data-name="Ellipse 218" class="cls-7" cx="5.105" cy="5.105" r="5.105" transform="translate(150.833 352.439)"/>
      </g>
      <g id="Group_376" data-name="Group 376" class="cls-2" transform="translate(187.5 6.6)">
        <circle id="Ellipse_219" data-name="Ellipse 219" class="cls-10" cx="14.202" cy="14.202" r="14.202" transform="translate(23.019 157.702)"/>
      </g>
      <g id="Group_377" data-name="Group 377" class="cls-2" transform="translate(187.5 6.6)">
        <circle id="Ellipse_220" data-name="Ellipse 220" class="cls-10" cx="5.941" cy="5.941" r="5.941" transform="translate(55.785 300.646)"/>
      </g>
      <g id="Group_378" data-name="Group 378" class="cls-2" transform="translate(232.5 6.6)">
        <circle id="Ellipse_221" data-name="Ellipse 221" class="cls-10" cx="14.202" cy="14.202" r="14.202" transform="translate(529.448 526.849)"/>
      </g>
      <g id="Group_379" data-name="Group 379" class="cls-2" transform="translate(187.5 6.6)">
        <circle id="Ellipse_222" data-name="Ellipse 222" class="cls-10" cx="5.105" cy="5.105" r="5.105" transform="translate(633.407 491.113)"/>
      </g>
      <g id="Group_380" data-name="Group 380" class="cls-2" transform="translate(187.5 6.6)">
        <circle id="Ellipse_223" data-name="Ellipse 223" class="cls-10" cx="7.054" cy="7.054" r="7.054" transform="translate(691.605 533.254)"/>
      </g>
      <g id="Group_381" data-name="Group 381" class="cls-2" transform="translate(187.5 6.6)">
        <circle id="Ellipse_224" data-name="Ellipse 224" class="cls-10" cx="19.678" cy="19.678" r="19.678" transform="translate(86.416 423.54)"/>
      </g>
      <g id="Group_382" data-name="Group 382" class="cls-2" transform="translate(187.5 6.6)">
        <circle id="Ellipse_225" data-name="Ellipse 225" class="cls-10" cx="8.632" cy="8.632" r="8.632" transform="translate(176.359 509.028)"/>
      </g>
      <g id="Group_383" data-name="Group 383" class="cls-2" transform="translate(187.5 6.6)">
        <circle id="Ellipse_226" data-name="Ellipse 226" class="cls-10" cx="6.683" cy="6.683" r="6.683" transform="translate(230.009 501.045)"/>
      </g>
    </g>
  </g>
</svg>
